…
``` r
instacart %>% 
  distinct(aisle) %>% 
  nrow()
```

    ## [1] 134

``` r
instacart %>% 
  count(aisle) %>% 
  arrange(desc(n))
```

    ## # A tibble: 134 x 2
    ##    aisle                              n
    ##    <chr>                          <int>
    ##  1 fresh vegetables              150609
    ##  2 fresh fruits                  150473
    ##  3 packaged vegetables fruits     78493
    ##  4 yogurt                         55240
    ##  5 packaged cheese                41699
    ##  6 water seltzer sparkling water  36617
    ##  7 milk                           32644
    ##  8 chips pretzels                 31269
    ##  9 soy lactosefree                26240
    ## 10 bread                          23635
    ## # ... with 124 more rows
…
## Problem 1.2

Make a plot that shows the number of items ordered in each aisle,
limiting this to aisles with more than 10000 items ordered. Arrange
aisles sensibly, and organize your plot so others can read it.

``` r
instacart %>% 
  filter(aisle == "asian foods") %>% 
  select(order_id, aisle)
```

    ## # A tibble: 7,007 x 2
    ##    order_id aisle      
    ##       <int> <chr>      
    ##  1      631 asian foods
    ##  2     1001 asian foods
    ##  3     1145 asian foods
    ##  4     1145 asian foods
    ##  5     2445 asian foods
    ##  6     3327 asian foods
    ##  7     3349 asian foods
    ##  8     3473 asian foods
    ##  9     5459 asian foods
    ## 10     5846 asian foods
    ## # ... with 6,997 more rows
…
``` r
brfss = 
  p8105.datasets::brfss_smart2010 %>% 
  janitor::clean_names() %>% 
  rename(resp_id = respid, location_abbr = locationabbr, location_desc = locationdesc) %>% #further manual renaming to appropriate variable names
  filter(topic == "Overall Health") %>% 
  select(year, location_abbr, location_desc, response, data_value)
brfss$response = 
  brfss$response %>%  
  factor(levels = c("Excellent", "Very good", "Good", "Fair", "Poor"))
brfss
```

    ## # A tibble: 10,625 x 5
    ##     year location_abbr location_desc         response  data_value
    ##    <int> <chr>         <chr>                 <fct>          <dbl>
    ##  1  2010 AL            AL - Jefferson County Excellent       18.9
    ##  2  2010 AL            AL - Jefferson County Very good       30  
    ##  3  2010 AL            AL - Jefferson County Good            33.1
    ##  4  2010 AL            AL - Jefferson County Fair            12.5
    ##  5  2010 AL            AL - Jefferson County Poor             5.5
    ##  6  2010 AL            AL - Mobile County    Excellent       15.6
    ##  7  2010 AL            AL - Mobile County    Very good       31.3
    ##  8  2010 AL            AL - Mobile County    Good            31.2
    ##  9  2010 AL            AL - Mobile County    Fair            15.5
    ## 10  2010 AL            AL - Mobile County    Poor             6.4
    ## # ... with 10,615 more rows
…
